{
	"Login": {"status": "", "path": "Common/Login.html"},
	"SideBar": {"status": "", "path": "Common/SideBar.html"},
	"StatusBar": {"status": "", "path": "Common/StatusBar.html"},
	"TopBar": {"status": "", "path": "Common/TopBar.html"},
	"CustomerHDRSideBar": {"status": "", "path": "Customer/CustomerHDRSideBar.html"},
	"DeliveryHDR_Edit": {"status": "", "path": "Delivery/DeliveryHDR_Edit.html"},
	"DeliveryHDR_List": {"status": "", "path": "Delivery/DeliveryHDR_List.html"},
	"DeliveryHDR_New": {"status": "", "path": "Delivery/DeliveryHDR_New.html"},
	"DeliveryHDR_View": {"status": "", "path": "Delivery/DeliveryHDR_View.html"},
	"DeliveryHDRSideBar": {"status": "", "path": "Delivery/DeliveryHDRSideBar.html"},
	"MerchandiseHDR_CreateNew": {"status": "Merchandise / Create New", "path": "Merchandise/MerchandiseHDR_New.html"},
	"MerchandiseHDR_Edit": {"status": "Merchandise / Edit", "path": "Merchandise/MerchandiseHDR_Edit.html"},
	"MerchandiseHDR_List": {"status": "Merchandise / List", "path": "Merchandise/MerchandiseHDR_List.html"},
	"MerchandiseHDR_Reimburse": {"status": "", "path": "Merchandise/MerchandiseHDR_Reimburse.html"},
	"MerchandiseHDR_View": {"status": "Merchandise / View", "path": "Merchandise/MerchandiseHDR_View.html"},
	"MerchandiseHDRSideBar": {"status": "", "path": "Merchandise/MerchandiseHDRSideBar.html"},
	"MerchandiseHDR_Save": {"status": "", "path": "Merchandise/MerchandiseHDR_View.html"},
	"MerchandiseHDR_Cancel": {"status": "", "path": "Merchandise/MerchandiseHDR_View.html"},
	"PurchaseHDRSideBar": {"status": "", "path": "Purchase/PurchaseHDRSideBar.html"},
	"CustomerOrderHDR": {"status": "Sales / Customer Order / List", "path": "Sales/CustomerOrderHDR_List.html"},
	"CustomerOrderHDRSideBar": {"status": "", "path": "Sales/CustomerOrderHDRSideBar.html"},
	"CustomerOrderLine": {"status": "Sales / Customer Order / View", "path": "Sales/CustomerOrderLine.html"},
	"PaymentLineHDR": {"status": "Sales / Payment / View", "path": "Sales/PaymentLineHDR_List.html"},
	"PaymentLineSideBar": {"status": "", "path": "Sales/PaymentLineSideBar.html"},
	"PrescriptionLine": {"status": "Sales / Prescription / View", "path": "Sales/PrescriptionLine_List.html"},
	"PrescriptionLine_New": {"status": "Sales / Prescription / View", "path": "Sales/PrescriptionLine_New.html"},
	"PrescriptionLine_Print": {"status": "Sales / Prescription / Print", "path": "Sales/PrescriptionLine_Print.html"},
	"PrescriptionLineSideBar": {"status": "", "path": "Sales/PrescriptionLineSideBar.html"},
	"UserHDRSideBar": {"status": "", "path": "User/UserHDRSideBar.html"},
	"UserManagementHDR": {"status": "", "path": "User/UserManagementHDR.html"},
	"UserManagementHDR_List": {"status": "User Management / List", "path": "User/UserManagementHDR_List.html"},
	"UserManagementHDR_New": {"status": "User Management / Create New", "path": "User/UserManagementHDR_New.html"},
	"UserManagementHDR_View": {"status": "User Management / View", "path": "User/UserManagementHDR_View.html"},
	"UserManagementHDR_Edit": {"status": "User Management / Edit", "path": "User/UserManagementHDR_View.html"},
	"UserManagementHDR_Save": {"status": "User Management / Save", "path": "User/UserManagementHDR_View.html"},
	"UserManagementHDR_Cancel": {"status": "User Management / Cancel", "path": "User/UserManagementHDR_View.html"},
	"SalesHDRSideBar": {"status": "", "path": "Sales/SalesHDRSideBar.html"},
	"SalesHDR": {"status": "", "path": "Sales/SalesHDR.html"},
	"CustomerOrderLineView": {"status": "", "path": "Sales/CustomerOrderLineView.html"},
	"CustomerOrderLineNew": {"status": "Sales / Customer / Create New", "path": "Sales/CustomerOrderHDR_View.html"},
	"CustomerOrderLineEdit": {"status": "", "path": "Sales/CustomerOrderLineEdit.html"},
	"PrescriptionLineView": {"status": "", "path": "Sales/PrescriptionLineList_View.html"},
	"PrescriptionLineNew": {"status": "", "path": "Sales/PrescriptionLineNew.html"},
	"PrescriptionLineEdit": {"status": "", "path": "Sales/PrescriptionLineEdit.html"},
	"CustomerOrderHDRView": {"status": "", "path": "Sales/CustomerOrderHDRView.html"},
	"PaymentLineView": {"status": "", "path": "Sales/PaymentLineHDRList_View.html"},
	"PaymentLineNew": {"status": "", "path": "Sales/PaymentLineNew.html"},
	"PaymentLineEdit": {"status": "", "path": "Sales/PaymentLineEdit.html"},
	"CustomerClientHDR_List": {"status": "Customer / Client /List", "path": "Customer/CustomerClientHDR_List.html"},
	"CustomerClientHDR_New": {"status": "Customer / Client / Create New", "path": "Customer/CustomerClientHDR_New.html"},
	"CustomerClientHDR_View": {"status": "", "path": "Customer/CustomerClientHDR_View.html"},
	"CustomerPatientHDR_List": {"status": "Customer / Patient / List", "path": "Customer/CustomerPatientHDR_List.html"},
	"CustomerPatientHDR_New": {"status": "Customer / Patient / Create New", "path": "Customer/CustomerPatientHDR_New.html"},
	"CustomerPatientHDR_View": {"status": "Customer / Patient / View", "path": "Customer/CustomerPatientHDR_View.html"},
	"CustomerLocationHDR_List": {"status": "Customer / Location / List", "path": "Customer/CustomerLocationHDR_List.html"},
	"CustomerLocationHDR_New": {"status": "Customer / Location / Create New", "path": "Customer/CustomerLocationHDR_New.html"},
	"CustomerLocationHDR_View": {"status": "Customer / Location / Create View", "path": "Customer/CustomerLocationHDR_View.html"},
	"PurchaseHDRSupplier_List": {"status": "Purchase / Supplier / List", "path": "Purchase/PurchaseHDRSupplier_List.html"},
	"PurchaseHDRSupplier_New": {"status": "Purchase / Supplier / Create New", "path": "Purchase/PurchaseHDRSupplier_New.html"},
	"PurchaseHDRSupplier_View": {"status": "Purchase / Supplier / View", "path": "Purchase/PurchaseHDRSupplier_View.html"},
	"PurchaseHDRSupplier_Edit": {"status": "Purchase / Supplier / Edit", "path": "Purchase/PurchaseHDRSupplier_Edit.html"},
	"PurchaseHDRSupplier_Save": {"status": "Purchase / Supplier / Save", "path": "Purchase/PurchaseHDRSupplier_View.html"},
	"PurchaseHDRSupplier_Cancel": {"status": "Purchase / Supplier / Cancel", "path": "Purchase/PurchaseHDRSupplier_View.html"},
	"PurchaseHDROrder_List": {"status": "Purchase / Order / List", "path": "Purchase/PurchaseHDROrder_List.html"},
	"PurchaseHDROrder_New": {"status": "Purchase / Order / Create New", "path": "Purchase/PurchaseHDROrder_New.html"},
	"PurchaseHDROrder_View": {"status": "Purchase / Order / View", "path": "Purchase/PurchaseHDROrder_View.html"},
	"PurchaseHDROrder_Edit": {"status": "Purchase / Order / Edit", "path": "Purchase/PurchaseHDROrder_Edit.html"},
	"PurchaseHDROrder_Save": {"status": "Purchase / Order / Save", "path": "Purchase/PurchaseHDROrder_View.html"},
	"PurchaseHDROrder_Cancel": {"status": "Purchase / Order / Cancel", "path": "Purchase/PurchaseHDROrder_View.html"},
	"PurchaseHDRReceive_List": {"status": "Purchase / Receive / List", "path": "Purchase/PurchaseHDRReceive_List.html"},
	"PurchaseHDRReceive_New": {"status": "Purchase / Receive / Create New", "path": "Purchase/PurchaseHDRReceive_New.html"},
	"PurchaseHDRReceive_View": {"status": "Purchase / Receive / View", "path": "Purchase/PurchaseHDRReceive_View.html"},
	"PurchaseHDRReceive_Edit": {"status": "Purchase / Receive / Edit", "path": "Purchase/PurchaseHDRReceive_Edit.html"},
	"PurchaseHDRReceive_Save": {"status": "Purchase / Receive / Save", "path": "Purchase/PurchaseHDRReceive_View.html"},
	"PurchaseHDRReceive_Cancel": {"status": "Purchase / Receive / Cancel", "path": "Purchase/PurchaseHDRReceive_View.html"},	
	"DeliveryHDR_List": {"status": "", "path": "Delivery/DeliveryHDR_List.html"},
	"DeliveryHDR_New": {"status": "", "path": "Delivery/DeliveryHDR_New.html"},
	"DeliveryHDR_View": {"status": "", "path": "Delivery/DeliveryHDR_View.html"},
	"DeliveryHDR_Edit": {"status": "", "path": "Delivery/DeliveryHDR_Edit.html"},
	"UserReportHDRSideBar": {"status": "", "path": "Report/UserReportHDRSideBar.html"},
	"CustomerOrderLinePrint": {"status": "Sales / Customer Order / Print", "path": "Sales/CustomerOrderLinePrint.html"},
	"CustomerLocationHDR_List": {"status": "Customer / Location / List", "path": "Customer/CustomerLocationHDR_List.html"},
	"CustomerLocationHDR_New": {"status": "Customer / Location / Create New", "path": "Customer/CustomerLocationHDR_New.html"},
	"InventoryReport": {"status": "Report / Inventory Report", "path": "Report/InventoryReport.html"},
	"SalesReport": {"status": "Report / Sales Report", "path": "Report/SalesReport.html"}
}