{
	"Login": "Common/Login.html",
	"SideBar": "Common/SideBar.html",
	"StatusBar": "Common/StatusBar.html",
	"TopBar": "Common/TopBar.html",
	"CustomerHDRSideBar": "Customer/CustomerHDRSideBar.html",
	"DeliveryHDR_Edit": "Delivery/DeliveryHDR_Edit.html",
	"DeliveryHDR_List": "Delivery/DeliveryHDR_List.html",
	"DeliveryHDR_New": "Delivery/DeliveryHDR_New.html",
	"DeliveryHDR_View": "Delivery/DeliveryHDR_View.html",
	"DeliveryHDRSideBar": "Delivery/DeliveryHDRSideBar.html",
	"MerchandiseHDR_CreateNew": "Merchandise/MerchandiseHDR_CreateNew.html",
	"MerchandiseHDR_Edit": "Merchandise/MerchandiseHDR_Edit.html",
	"MerchandiseHDR_List": "Merchandise/MerchandiseHDR_List.html",
	"MerchandiseHDR_Reimburse": "Merchandise/MerchandiseHDR_Reimburse.html",
	"MerchandiseHDR_View": "Merchandise/MerchandiseHDR_View.html",
	"MerchandiseHDRSideBar": "Merchandise/MerchandiseHDRSideBar.html",
	"PurchaseHDRSideBar": "Purchase/PurchaseHDRSideBar.html",
	"CustomerOrderHDR": "Sales/CustomerOrderHDR.html",
	"CustomerOrderHDRSideBar": "Sales/CustomerOrderHDRSideBar.html",
	"CustomerOrderLine": "Sales/CustomerOrderLine.html",
	"PaymentLineHDR": "Sales/PaymentLineHDR.html",
	"PaymentLineSideBar": "Sales/PaymentLineSideBar.html",
	"PrescriptionLine": "Sales/PrescriptionLine.html",
	"PrescriptionLineSideBar": "Sales/PrescriptionLineSideBar.html",
	"UserHDRSideBar": "User/UserHDRSideBar.html",
	"UserManagementHDR": "User/UserManagementHDR.html",
	"UserReportHDRSideBar": "User/UserReportHDRSideBar.html",
	"SalesHDRSideBar": "Sales/SalesHDRSideBar.html",
	"SalesHDR": "Sales/SalesHDR.html"
}