{
	"Login": "Common/Login.html",
	"SideBar": "Common/SideBar.html",
	"StatusBar": "Common/StatusBar.html",
	"TopBar": "Common/TopBar.html",
	"CustomerHDRSideBar": "Customer/CustomerHDRSideBar.html",
	"DeliveryHDR_Edit": "Delivery/DeliveryHDR_Edit.html",
	"DeliveryHDR_List": "Delivery/DeliveryHDR_List.html",
	"DeliveryHDR_New": "Delivery/DeliveryHDR_New.html",
	"DeliveryHDR_View": "Delivery/DeliveryHDR_View.html",
	"DeliveryHDRSideBar": "Delivery/DeliveryHDRSideBar.html",
	"MerchandiseHDR_New": "Merchandise/MerchandiseHDR_New.html",
	"MerchandiseHDR_Edit": "Merchandise/MerchandiseHDR_Edit.html",
	"MerchandiseHDR_List": "Merchandise/MerchandiseHDR_List.html",
	"MerchandiseHDR_View": "Merchandise/MerchandiseHDR_View.html",
	"MerchandiseHDR_Save": "Merchandise/MerchandiseHDR_View.html",
	"MerchandiseHDR_Cancel": "Merchandise/MerchandiseHDR_View.html",
	"MerchandiseHDRSideBar": "Merchandise/MerchandiseHDRSideBar.html",
	"PurchaseHDRSideBar": "Purchase/PurchaseHDRSideBar.html",
	"CustomerOrderHDR": "Sales/CustomerOrderHDR.html",
	"CustomerOrderHDRSideBar": "Sales/CustomerOrderHDRSideBar.html",
	"CustomerOrderLine": "Sales/CustomerOrderLine.html",
	"PaymentLineHDR": "Sales/PaymentLineHDR.html",
	"PaymentLineSideBar": "Sales/PaymentLineSideBar.html",
	"PrescriptionLine": "Sales/PrescriptionLine.html",
	"PrescriptionLineSideBar": "Sales/PrescriptionLineSideBar.html",
	"UserHDRSideBar": "User/UserHDRSideBar.html",
	"UserManagementHDR": "User/UserManagementHDR.html",
	"UserManagementHDR_List": "User/UserManagementHDR_List.html",
	"UserManagementHDR_New": "User/UserManagementHDR_New.html",
	"UserManagementHDR_View": "User/UserManagementHDR_View.html",
	"UserManagementHDR_Edit": "User/UserManagementHDR_View.html",
	"MechandiseHDR_List": "Merchandise/MechandiseHDR_List.html",
	"SalesHDRSideBar": "Sales/SalesHDRSideBar.html",
	"SalesHDR": "Sales/SalesHDR.html",
	"CustomerOrderLineView": "Sales/CustomerOrderLineView.html",
	"CustomerOrderLineNew": "Sales/CustomerOrderLineNew.html",
	"CustomerOrderLineEdit": "Sales/CustomerOrderLineEdit.html",
	"PrescriptionLineView": "Sales/PrescriptionLineView.html",
	"PrescriptionLineNew": "Sales/PrescriptionLineNew.html",
	"PrescriptionLineEdit": "Sales/PrescriptionLineEdit.html",
	"CustomerOrderHDRView": "Sales/CustomerOrderHDRView.html",
	"PaymentLineView": "Sales/PaymentLineView.html",
	"PaymentLineNew": "Sales/PaymentLineNew.html",
	"PaymentLineEdit": "Sales/PaymentLineEdit.html",
	"CustomerClientHDR_List": "Customer/CustomerClientHDR_List.html",
	"CustomerClientHDR_New": "Customer/CustomerClientHDR_New.html",
	"CustomerClientHDR_View": "Customer/CustomerClientHDR_View.html",
	"CustomerPatientHDR_List": "Customer/CustomerPatientHDR_List.html",
	"CustomerPatientHDR_New": "Customer/CustomerPatientHDR_New.html",
	"CustomerPatientHDR_View": "Customer/CustomerPatientHDR_View.html",
	"CustomerPatientLocation_List": "Customer/CustomerPatientLocation_List.html",
	"CustomerPatientLocation_New": "Customer/CustomerPatientLocation_New.html",
	"CustomerPatientLocation_View": "Customer/CustomerPatientLocation_View.html",
	"PurchaseHDRSupplier_List": "Purchase/PurchaseHDRSupplier_List.html",
	"PurchaseHDRSupplier_New": "Purchase/PurchaseHDRSupplier_New.html",
	"PurchaseHDRSupplier_View": "Purchase/PurchaseHDRSupplier_View.html",
	"PurchaseHDROrder_List": "Purchase/PurchaseHDROrder_List.html",
	"PurchaseHDROrder_New": "Purchase/PurchaseHDROrder_New.html",
	"PurchaseHDROrder_View": "Purchase/PurchaseHDROrder_View.html",
	"PurchaseHDRReceive_List": "Purchase/PurchaseHDRReceive_List.html",
	"PurchaseHDRReceive_New": "Purchase/PurchaseHDRReceive_New.html",
	"PurchaseHDRReceive_View": "Purchase/PurchaseHDRReceive_View.html",
	"PurchaseHDRPayment_List": "Purchase/PurchaseHDRPayment_List.html",
	"PurchaseHDRPayment_New": "Purchase/PurchaseHDRPayment_New.html",
	"PurchaseHDRPayment_View": "Purchase/PurchaseHDRPayment_View.html",
	"DeliveryHDR_List": "Delivery/DeliveryHDR_List.html",
	"DeliveryHDR_New": "Delivery/DeliveryHDR_New.html",
	"DeliveryHDR_View": "Delivery/DeliveryHDR_View.html",
	"DeliveryHDR_Edit": "Delivery/DeliveryHDR_Edit.html",
	"PurchaseHDRSupplier_List": "Purchase/PurchaseHDRSupplier_List.html",
	"PurchaseHDRSupplier_New": "Purchase/PurchaseHDRSupplier_New.html",
	"PurchaseHDRSupplier_View": "Purchase/PurchaseHDRSupplier_View.html",
	"UserReportHDRSideBar": "Report/UserReportHDRSideBar.html",
	"UserReportSalesReport": "Report/SalesReport.html",
	"UserReportInventoryReport": "Report/InventoryReport.html",
	
	"CustomerOrderLinePrint": "Sales/CustomerOrderLinePrint.html",
	"CustomerLocationHDR_New": "Customer/CustomerLocationHDR_New.html"
}