{
"Sales":
		[
			{"header":"Customer Order",
			"items":
			[
				{"text":"List","command":"cp(\"CustomerOrderHDR\",\"contents\")"},
				{"text":"View","command":"cp(\"CustomerOrderLine\",\"contents\")"},
				{"text":"New","command":"cp(\"CustomerOrderLine\",\"contents\")"},
				{"text":"Edit","command":"cp(\"CustomerOrderLine\",\"contents\")"},
				{"text":"Print","command":"cp(\"CustomerOrderLinePrint\",\"contents\")"},
				{"text":"Refresh","command":"cp(\"CustomerOrderLine\",\"contents\")"},
				{"text":"Save","command":"cp(\"CustomerOrderLine\",\"contents\")"},
				{"text":"Cancel","command":"cp(\"CustomerOrderLine\",\"contents\")"}
			]},
			{"header":"Prescription",
			"items":
			[
				{"text":"View","command":"cp(\"PrescriptionLine\",\"contents\")"},
				{"text":"New","command":"cp(\"PrescriptionLine\",\"contents\")"},
				{"text":"Edit","command":"cp(\"PrescriptionLine\",\"contents\")"},
				{"text":"Print","command":"cp(\"PrescriptionLine\",\"contents\")"},
				{"text":"Refresh","command":"cp(\"PrescriptionLine\",\"contents\")"}
			]},
			{"header":"Payment",
			"items":
			[
				{"text":"View","command":"cp(\"PaymentLineHDR\",\"contents\")"},
				{"text":"New","command":"cp(\"PaymentLineHDR\",\"contents\")"},
				{"text":"Edit","command":"cp(\"PaymentLineHDR\",\"contents\")"},
				{"text":"Print","command":"cp(\"PaymentLineHDR\",\"contents\")"},
				{"text":"Refresh","command":"cp(\"PaymentLineHDR\",\"contents\")"}
			]}
		],
"Merchandise":
		[
			{"header":"",
			"items":
			[
				{"text":"List","command":"cp(\"MerchandiseHDR_List\",\"contents\")"},
				{"text":"Create New","command":"cp(\"MerchandiseHDR_CreateNew\",\"contents\")"},
				{"text":"View","command":"cp(\"MerchandiseHDR_View\",\"contents\")"},
				{"text":"Edit","command":"cp(\"MerchandiseHDR_Edit\",\"contents\")"},
				{"text":"Save","command":"cp(\"MerchandiseHDR_View\",\"contents\")"},
				{"text":"Cancel","command":"cp(\"MerchandiseHDR_View\",\"contents\")"}
			]}
		],
"Customer":
		[
			{"header":"Client",
			"items":
			[
				{"text":"List","command":"cp(\"CustomerClientHDR_List\",\"contents\")"},
				{"text":"Create New","command":"cp(\"CustomerClientHDR_New\",\"contents\")"},
				{"text":"View","command":"cp(\"CustomerClientHDR_View\",\"contents\")"},
				{"text":"Edit","command":"cp(\"CustomerClientHDR_View\",\"contents\")"},
				{"text":"Save","command":"cp(\"CustomerClientHDR_View\",\"contents\")"},
				{"text":"Cancel","command":"cp(\"CustomerClientHDR_View\",\"contents\")"}
			]},
			{"header":"Patient",
			"items":
			[
				{"text":"List","command":"cp(\"CustomerPatientHDR_List\",\"contents\")"},
				{"text":"Create New","command":"cp(\"CustomerPatientHDR_New\",\"contents\")"},
				{"text":"View","command":"cp(\"CustomerPatientHDR_View\",\"contents\")"},
				{"text":"Edit","command":"cp(\"CustomerPatientHDR_View\",\"contents\")"},
				{"text":"Save","command":"cp(\"CustomerPatientHDR_View\",\"contents\")"},
				{"text":"Cancel","command":"cp(\"CustomerPatientHDR_View\",\"contents\")"}
			]},
			{"header":"Location",
			"items":
			[
				{"text":"List","command":"cp(\"CustomerPatientLocation_List\",\"contents\")"},
				{"text":"Create New","command":"cp(\"CustomerLocationHDR_New\",\"contents\")"},
				{"text":"View","command":"cp(\"CustomerLocationHDR_New\",\"contents\")"},
				{"text":"Edit","command":"cp(\"CustomerLocationHDR_New\",\"contents\")"},
				{"text":"Save","command":"cp(\"CustomerLocationHDR_New\",\"contents\")"},
				{"text":"Cancel","command":"cp(\"CustomerLocationHDR_New\",\"contents\")"}
			]}
		],
"Purchase":
		[
			{"header":"Supplier",
			"items":
			[
				{"text":"List","command":"cp(\"PurchaseHDRSupplier_List\",\"contents\")"},
				{"text":"Create New","command":"cp(\"PurchaseHDRSupplier_New\",\"contents\")"},
				{"text":"View","command":"cp(\"PurchaseHDRSupplier_View\",\"contents\")"},
				{"text":"Edit","command":"cp(\"PurchaseHDRSupplier_Edit\",\"contents\")"},
				{"text":"Save","command":"cp(\"PurchaseHDRSupplier_View\",\"contents\")"},
				{"text":"Cancel","command":"cp(\"PurchaseHDRSupplier_View\",\"contents\")"}
			]},
			{"header":"Order",
			"items":
			[
				{"text":"List","command":"cp(\"PurchaseHDROrder_List\",\"contents\")"},
				{"text":"Create New","command":"cp(\"PurchaseHDROrder_New\",\"contents\")"},
				{"text":"View","command":"cp(\"PurchaseHDROrder_View\",\"contents\")"},
				{"text":"Edit","command":"cp(\"PurchaseHDROrder_Edit\",\"contents\")"},
				{"text":"Save","command":"cp(\"PurchaseHDROrder_Save\",\"contents\")"},
				{"text":"Cancel","command":"cp(\"PurchaseHDROrder_Cancel\",\"contents\")"}
			]},
			{"header":"Receive",
			"items":
			[
				{"text":"List","command":"cp(\"PurchaseHDRReceive_List\",\"contents\")"},
				{"text":"Create New","command":"cp(\"PurchaseHDRReceive_New\",\"contents\")"},
				{"text":"View","command":"cp(\"PurchaseHDRReceive_View\",\"contents\")"},
				{"text":"Edit","command":"cp(\"PurchaseHDRReceive_Edit\",\"contents\")"},
				{"text":"Save","command":"cp(\"PurchaseHDRReceive_View\",\"contents\")"},
				{"text":"Cancel","command":"cp(\"PurchaseHDRReceive_View\",\"contents\")"}				
			]}
		],
"Delivery":
		[
			{"header":"",
			"items":
			[
				{"text":"List","command":"cp(\"DeliveryHDR_List\",\"contents\")"},
				{"text":"Create New","command":"cp(\"DeliveryHDR_New\",\"contents\")"},
				{"text":"View","command":"cp(\"DeliveryHDR_View\",\"contents\")"},
				{"text":"Edit","command":"cp(\"DeliveryHDR_Edit\",\"contents\")"}
			]}
		],
"User":
		[
			{"header":"",
			"items":
			[
				{"text":"List","command":"cp(\"UserManagementHDR_List\",\"contents\")"},
				{"text":"Create New","command":"cp(\"UserManagementHDR_New\",\"contents\")"},
				{"text":"View","command":"cp(\"UserManagementHDR_View\",\"contents\")"},
				{"text":"Edit","command":"cp(\"UserManagementHDR_View\",\"contents\")"},
				{"text":"Save","command":"cp(\"UserManagementHDR_View\",\"contents\")"},
				{"text":"Cancel","command":"cp(\"UserManagementHDR_View\",\"contents\")"}
			]}
		],
"Report":
		[
			{"header":"",
			"items":
			[

				{"text":"Inventory Report","command":"cp(\"InventoryReport\",\"contents\")"},
				{"text":"Sales Report","command":"cp(\"SalesReport\",\"contents\")"}

			]}
		]

}