{
"CustomerOrderHDR":"SELECT  `order`.`OrderID` AS  'Order ID',  `order`.`orderCreateTime` AS  'Sales Date',  `order`.`ClientID` AS  'Customer Number', `clients`.`clientcompanyname` AS  'Customer Name',  case coalesce(`order`.OrderStatus,0) when '1' then (select 'processing')  when '2' then (select 'processed') else `order`.orderstatus end AS  'Sales Status', concat('$', `order`.`OrderTotalPrice`) AS  'Total Price' FROM  `order` LEFT JOIN clients ON order.clientid = clients.clientid",
"CustomerOrderLineNew":"",
	"CustomerOrderLineView":"",
"PrescriptionLine":"SELECT PrescriptionLineID as 'Prescription Line ID', p.`MedicalID` AS  'Item ID', m.medicalname AS  'Description', m.medicalprice AS  'Price', p.`PrescriptionLineQty` AS  'Qty', m.medicaltype AS  'Lot ID', p.`PrescriptionLineQty` * m.medicalprice AS  'Ext Price' FROM  `prescriptionline` p LEFT JOIN medical m ON m.medicalid = p.medicalid",
"PrescriptionLine_New":"",
"PaymentLineHDR":"SELECT PaymentID as 'Payment ID',case `PaymentType` when '1' then (select 'Cash') when '2' then (select 'Credit Card') else paymenttype end as 'Payment Method', concat('$',`PaymentAmount`) as 'Payment Amount' FROM `payment`",
"PaymentLineView":"",
"MerchandiseHDR_List":"SELECT `MedicalID` as 'Item ID', `MedicalName` as 'Item Name', `MedicalDescription` as 'Item Description', concat('$',`MedicalPrice`) as 'Item Cost', concat('$',`MedicalRetailPrice`) as 'Item Retail Price', case `MedicalStatus` when '1' then (select 'Active') when '0' then (select 'inactive') else MedicalStatus end as 'Item Status', `MedicalTotalQty` as 'Item Total Qty' FROM `medical`",
"MerchandiseHDR_View":"",
"CustomerClientHDR_List":"select clientid as 'Client ID',clientcompanyname as 'Client Name',clientcontactperson as 'Contact Person',clienttelephone as 'Telephone',address as 'Address',concat(clientdiscount,'%') as 'Discount',clientquota as 'Quota', case clientstatus when '1' then (select 'Active') when '0' then (select 'inactive') else clientstatus end as 'Status',deliveryteam as 'Delivery Team' from clients",
"CustomerClientHDR_New":"",
"CustomerPatientHDR_List":"SELECT `PatientID` as 'Patient ID', `ClientID` as 'Client ID', `LocationID` as 'Location ID', `PatientFirstName` as 'First Name', `PatientLastName` as 'Last Name', case `PatientGender` when '1' then (select 'M') when '0' then (select 'F') else PatientGender end as 'Gender', `PatientDateOfBirth` as 'Date of Brith', `PatientContact` as 'Telephone', `PatientRoom` as 'Room', `PatientAddress` as 'Address', case `PatientStatus` when '1' then (select 'Active') when '0' then (select 'inactive') else PatientStatus end as 'Status' FROM `patient`",
"CustomerPatientHDR_New":"",
"CustomerLocationHDR_List":"SELECT  `LocationID` AS  'Location ID',  `ClientID` AS  'Client ID',  `LocationFacilityName` AS  'Location Facility Name',  `LocationBuilding` AS  'Address' FROM  `locations`",
"CustomerLocationHDR_New":"",
"PurchaseHDRSupplier_List":"SELECT `SupplierID` as 'Supplier ID', `SupplierName` as 'Supplier Name', case `SupplierStatus` when '1' then (select 'Active') when '0' then (select 'inactive') else SupplierStatus end as 'Supplier Status' FROM `suppliers`",
"PurchaseHDRSupplier_New":"",
"PurchaseHDROrder_List":"SELECT p.`POID` AS  'PO ID', s.SupplierName AS  'Supplier Name', CONCAT( e.employeefirstname,  ' ', e.employeelastname ) AS 'Employee Name', p.`POCreateTime` AS  'PO Create Time', p.`POLastEditTime` AS  'PO Last Edit Time', p.`POExpectDelivery` AS 'PO Expect Delivery Time', concat('$',p.`POTotal`) AS  'PO Total Price', case p.`POStatus` when '1' then (select 'Processing') when '2' then (select 'Completed') else POStatus end AS  'PO Status' FROM  `pohdr` p LEFT JOIN employees e ON e.employeeid = p.employeeid LEFT JOIN suppliers s ON s.supplierid = p.supplierid",
"PurchaseHDROrder_New":"",
"PurchaseHDRReceive_List":"SELECT ReceiveHDRID as 'Receive ID',r.`POID` AS  'PO ID', r.`SupplierID` AS  'Supplier ID', case p.postatus when '1' then (select 'Processing') when '2' then (select 'Completed') else p.postatus end AS  'PO Status' FROM  `receivehdr` r LEFT JOIN pohdr p ON p.poid = r.poid",
"PurchaseHDRReceive_New":"",
	"PurchaseHDRReceive_View":"",
"UserManagementHDR_List":"select login as 'Login Name', employeeid as 'Staff ID', dateofbirth as 'Date of birth', case gender when '1' then (select 'M') when '0' then (select 'M') else gender end as 'Gender', phone as 'Phone', address as 'Address', email as 'Email', concat('$',salary) as 'Salary', employeetitle as 'Position',case employeestatus when '1' then (select 'Active') when '0' then (select 'inactive') else employeestatus end as 'Status' from employees",
"UserManagementHDR_New":"",
	"UserManagementHDR_View":"",
"InventoryReport":"",
"SalesReport":"",
"Login":""
}

